{
  "dev": {
    "app_function": "numo_2.app",
    "aws_region": "us-east-2",
    "profile_name": "default",
    "project_name": "autocomplete",
    "runtime": "python3.7",
    "s3_bucket": "numo-2-dev"
  }
}